{
  "project_info": {
    "project_number": "668779897596",
    "firebase_url": "https://endologix-163013.firebaseio.com",
    "project_id": "endologix-163013",
    "storage_bucket": "endologix-163013.appspot.com"
  },
  "client": [
    {
      "client_info": {
        "mobilesdk_app_id": "1:668779897596:android:23d5d4867c1205ed",
        "android_client_info": {
          "package_name": "com.endologix"
        }
      },
      "oauth_client": [
        {
          "client_id": "668779897596-ne7rqsq1hulpt418dr6uqmprupd9avjd.apps.googleusercontent.com",
          "client_type": 1,
          "android_info": {
            "package_name": "com.endologix",
            "certificate_hash": "f648408f79966a6a77d6cb6861dee2f4edc31e21"
          }
        },
        {
          "client_id": "668779897596-5sd2esmdmgs2ng1ra0cmshsg062776am.apps.googleusercontent.com",
          "client_type": 3
        }
      ],
      "api_key": [
        {
          "current_key": "AIzaSyATVUk7ByD1_bOmaC0557rncn5XA0_FY1A"
        }
      ],
      "services": {
        "analytics_service": {
          "status": 1
        },
        "appinvite_service": {
          "status": 2,
          "other_platform_oauth_client": [
            {
              "client_id": "668779897596-5sd2esmdmgs2ng1ra0cmshsg062776am.apps.googleusercontent.com",
              "client_type": 3
            }
          ]
        },
        "ads_service": {
          "status": 2
        }
      }
    }
  ],
  "configuration_version": "1"
}