{
  "project_info": {
    "project_number": "255825631480",
    "firebase_url": "https://hgso1lwc-91552.firebaseio.com",
    "project_id": "hgso1lwc-91552",
    "storage_bucket": "hgso1lwc-91552.appspot.com"
  },
  "client": [
    {
      "client_info": {
        "mobilesdk_app_id": "1:255825631480:android:c1ef9c9b3ecbfda4",
        "android_client_info": {
          "package_name": "com.magnifgroup.iep"
        }
      },
      "oauth_client": [
        {
          "client_id": "255825631480-u7hmtq9rl5nup019l20es2rs4335qvrq.apps.googleusercontent.com",
          "client_type": 1,
          "android_info": {
            "package_name": "com.magnifgroup.iep",
            "certificate_hash": "92D8281E34AE1171E4352FE036C434F1A5789A5E"
          }
        },
        {
          "client_id": "255825631480-skcqmo64viavn3834d8tro864pis1nea.apps.googleusercontent.com",
          "client_type": 3
        }
      ],
      "api_key": [
        {
          "current_key": "AIzaSyDgc0Z0ZxYMWxn2pCyPTSbyrdZcvRVzjK4"
        }
      ],
      "services": {
        "analytics_service": {
          "status": 1
        },
        "appinvite_service": {
          "status": 2,
          "other_platform_oauth_client": [
            {
              "client_id": "255825631480-skcqmo64viavn3834d8tro864pis1nea.apps.googleusercontent.com",
              "client_type": 3
            }
          ]
        },
        "ads_service": {
          "status": 2
        }
      }
    }
  ],
  "configuration_version": "1"
}